<?xml version="1.0" encoding="UTF-8"?>
<svg width="72px" height="13px" viewBox="0 0 72 13" version="1.1" xmlns="http://www.w3.org/2000/svg" xmlns:xlink="http://www.w3.org/1999/xlink">
    <title>Telia Pay logo@1,5x</title>
    <g id="Delivered-Design" stroke="none" stroke-width="1" fill="none" fill-rule="evenodd" font-family="Pebble-CAPS, Pebble" font-size="16" font-weight="normal" letter-spacing="-0.00765957507">
        <g id="1.6A-Split-payment-option" transform="translate(-1031.000000, -455.000000)" fill="#9013FE">
            <g id="Telia-Pay-Logo---Core-Purple" transform="translate(1030.000000, 451.000000)">
                <g id="Telia-Pay-logo" transform="translate(1.000000, 0.000000)">
                    <text id="Telia-pay">
                        <tspan x="0.196936176" y="16">Telia pay</tspan>
                    </text>
                </g>
            </g>
        </g>
    </g>
</svg>